<svg width="1440" height="627" viewBox="0 0 1440 627" fill="none" xmlns="http://www.w3.org/2000/svg">
<rect width="1440" height="627" fill="url(#paint0_radial_421_24223)"/>
<rect y="267" width="1440" height="360" fill="url(#paint1_linear_421_24223)"/>
<defs>
<radialGradient id="paint0_radial_421_24223" cx="0" cy="0" r="1" gradientUnits="userSpaceOnUse" gradientTransform="translate(1440 627.006) rotate(-156.615) scale(1579.76 461197)">
<stop stop-color="#E8DEFF"/>
<stop offset="0.5082" stop-color="#F6F3FE" stop-opacity="0.83"/>
<stop offset="1" stop-color="#FFD4D8" stop-opacity="0.73"/>
</radialGradient>
<linearGradient id="paint1_linear_421_24223" x1="720" y1="627" x2="720" y2="277.712" gradientUnits="userSpaceOnUse">
<stop stop-color="white"/>
<stop offset="0.245944" stop-color="white"/>
<stop offset="1" stop-color="white" stop-opacity="0"/>
</linearGradient>
</defs>
</svg>
